{
    "0ad": "Q161234",
    "7zip": "Q215051",
    "abiword": "Q136775",
    "acetoneiso": "Q1164931",
    "akonadi": "Q420497",
    "allegro": "Q1503415",
    "amarok": "Q185037",
    "anki": "Q557318",
    "apertium": "Q184835",
    "apt": "Q230724",
    "arduino": "Q175957",
    "ark": "Q671759",
    "assaultcube": "Q739804",
    "audacity": "Q191782",
    "audiere": "Q4819788",
    "autowikibrowser": "Q4063270",
    "avidemux": "Q790931",
    "avogadro": "Q851800",
    "awstats": "Q300240",
    "bash": "Q189248",
    "bitcoin": "Q18198917",
    "bitlbee": "Q878823",
    "blender": "Q173136",
    "boinc": "Q209563",
    "box2d": "Q2579122",
    "bullet": "Q1114626",
    "cal3d": "Q5018094",
    "cantor": "Q5034025",
    "cegui-0.8": "Q5010241",
    "celestia": "Q319650",
    "cervisia": "Q5065378",
    "clanlib": "Q1094900",
    "clementine": "Q1100372",
    "crypto++": "Q5190783",
    "debian": "Q7593",
    "devil": "Q1206610",
    "dolphin": "Q816725",
    "eclipse": "Q82268",
    "filelight": "Q3510027",
    "filezilla": "Q300662",
    "flightgear": "Q1163986",
    "freebsd": "Q34236",
    "freeciv": "Q424271",
    "freecol": "Q162028",
    "freedoom": "Q4038978",
    "freedroid": "Q1453550",
    "freeorion": "Q527009",
    "fretsonfire": "Q1362771",
    "frogatto": "Q5505240",
    "gedit": "Q194501",
    "gimp": "Q8038",
    "git": "Q186055",
    "glfw": "Q11860238",
    "globulation2": "Q3109049",
    "gnuchess": "Q494713",
    "gtk+": {
        "Q44316": "GNOME",
        "Q189464": "GTK+"
    },
    "gwenview": "Q1144917",
    "hedgewars": "Q1353509",
    "hurd": "Q48464",
    "inkscape": "Q8041",
    "irrlicht": "Q1423300",
    "joomla": "Q13167",
    "juk": "Q1500348",
    "kalgebra": "Q16255490",
    "kalzium": "Q1511822",
    "kanagram": "Q953018",
    "kate": "Q261933",
    "katomic": "Q6325571",
    "kbounce": "Q6305648",
    "kcalc": "Q1103021",
    "kde-baseapps": {
        "Q178565": "Konqueror"
    },
    "kdenlive": "Q572226",
    "kdepim": {
        "Q1765672": "Akregator",
        "Q3191332": "KAlarm",
        "Q260852": "KMail",
        "Q13222324": "Kontact"
    },
    "kgeography": "Q1610741",
    "kget": "Q535508",
    "kgpg": "Q2602001",
    "khangman": "Q1072832",
    "kig": "Q584284",
    "kiten": "Q2706102",
    "kiwix": "Q559020",
    "klettres": "Q4041992",
    "kmines": "Q764331",
    "kmix": "Q3191461",
    "kmplot": "Q1581097",
    "knoppix": "Q102410",
    "kolf": "Q6427221",
    "kolourpaint": "Q1639988",
    "kompare": "Q1418847",
    "konsole": "Q257793",
    "kopete": "Q58443",
    "kppp": "Q306188",
    "krdc": "Q6336586",
    "kstars": "Q280386",
    "ktouch": "Q195758",
    "ktp-common-internals": "Q6327791",
    "ktuberling": "Q11929540",
    "kturtle": "Q600450",
    "kwordquiz": "Q2394491",
    "libwww": "Q917445",
    "lokalize": "Q1868530",
    "lxde": "Q47123",
    "marble": "Q163075",
    "minix": "Q187906",
    "moodle": "Q190434",
    "mplayer": "Q131344",
    "netbsd": "Q34225",
    "nethack": "Q856904",
    "neverball": "Q568831",
    "notepad++": "Q2033",
    "octave": "Q223679",
    "ode": "Q2025673",
    "okular": "Q1165933",
    "openarena": "Q1469533",
    "openbsd": "Q34215",
    "openoffice": "Q511977",
    "openscenegraph": "Q617329",
    "opensuse": "Q16691",
    "openttd": "Q725120",
    "parley": "Q1406855",
    "phpbb": "Q14270",
    "pidgin": "Q71380",
    "qt": "Q201904",
    "r": "Q206904",
    "reactos": "Q234025",
    "samba": "Q1830735",
    "slackware": "Q58436",
    "spectacle": "Q677609",
    "thunderbird": "Q483604",
    "tor": "Q202044",
    "umbrello": "Q1606279",
    "vim": "Q131382",
    "wesnoth": "Q214142",
    "wine": "Q188558",
    "wordpress": "Q13166",
    "x11": "Q178481",
    "xchat": "Q206713",
    "xfce": "Q170821"
}
